{  
  "service": {
    "emailer": {
      "sockets": {
        "port": 3001
      },
      "database": {
        "uri": "mongodb://192.168.99.100:32767/mongo"
      },
      "templatepath": "spec/templates/",
      "smtp": {
        "host": "host319.hostmonster.com",
        "port": 465,
        "from": "play@uprightgaming.com",
        "user": "play@uprightgaming.com",
        "pass": "Play more b0ard g@mes"
      }
    }
  }
}
